{
  "development": {
    "username": "postgres",
    "password": "postgres",
    "database": "taskdb",
    "host": "127.0.0.1",
    "port": 5432,
    "dialect": "postgres",
    "redishost":  "localhost",
    "redisport": 6379
  },
  "test": {
    "username": "postgres",
    "password": null,
    "database": "taskdb-test",
    "host": "127.0.0.1",
    "port": 5432,
    "dialect": "postgres"
  },
  "production": {
    "redishost": "redis-17016.c15.us-east-1-2.ec2.cloud.redislabs.com" ,
    "redisport":  17016
  }

}
